<?xml version="1.0" encoding="utf-8"?>
<!DOCTYPE eagle SYSTEM "eagle.dtd">
<eagle version="9.5.2">
<drawing>
<settings>
<setting alwaysvectorfont="no"/>
<setting verticaltext="up"/>
</settings>
<grid distance="0.1" unitdist="inch" unit="inch" style="lines" multiple="1" display="no" altdistance="0.01" altunitdist="inch" altunit="inch"/>
<layers>
<layer number="1" name="Top" color="4" fill="1" visible="no" active="no"/>
<layer number="2" name="Route2" color="1" fill="3" visible="no" active="no"/>
<layer number="3" name="Route3" color="4" fill="3" visible="no" active="no"/>
<layer number="4" name="Route4" color="1" fill="4" visible="no" active="no"/>
<layer number="5" name="Route5" color="4" fill="4" visible="no" active="no"/>
<layer number="6" name="Route6" color="1" fill="8" visible="no" active="no"/>
<layer number="7" name="Route7" color="4" fill="8" visible="no" active="no"/>
<layer number="8" name="Route8" color="1" fill="2" visible="no" active="no"/>
<layer number="9" name="Route9" color="4" fill="2" visible="no" active="no"/>
<layer number="10" name="Route10" color="1" fill="7" visible="no" active="no"/>
<layer number="11" name="Route11" color="4" fill="7" visible="no" active="no"/>
<layer number="12" name="Route12" color="1" fill="5" visible="no" active="no"/>
<layer number="13" name="Route13" color="4" fill="5" visible="no" active="no"/>
<layer number="14" name="Route14" color="1" fill="6" visible="no" active="no"/>
<layer number="15" name="Route15" color="4" fill="6" visible="no" active="no"/>
<layer number="16" name="Bottom" color="1" fill="1" visible="no" active="no"/>
<layer number="17" name="Pads" color="2" fill="1" visible="no" active="no"/>
<layer number="18" name="Vias" color="2" fill="1" visible="no" active="no"/>
<layer number="19" name="Unrouted" color="6" fill="1" visible="no" active="no"/>
<layer number="20" name="Dimension" color="24" fill="1" visible="no" active="no"/>
<layer number="21" name="tPlace" color="7" fill="1" visible="no" active="no"/>
<layer number="22" name="bPlace" color="7" fill="1" visible="no" active="no"/>
<layer number="23" name="tOrigins" color="15" fill="1" visible="no" active="no"/>
<layer number="24" name="bOrigins" color="15" fill="1" visible="no" active="no"/>
<layer number="25" name="tNames" color="7" fill="1" visible="no" active="no"/>
<layer number="26" name="bNames" color="7" fill="1" visible="no" active="no"/>
<layer number="27" name="tValues" color="7" fill="1" visible="no" active="no"/>
<layer number="28" name="bValues" color="7" fill="1" visible="no" active="no"/>
<layer number="29" name="tStop" color="7" fill="3" visible="no" active="no"/>
<layer number="30" name="bStop" color="7" fill="6" visible="no" active="no"/>
<layer number="31" name="tCream" color="7" fill="4" visible="no" active="no"/>
<layer number="32" name="bCream" color="7" fill="5" visible="no" active="no"/>
<layer number="33" name="tFinish" color="6" fill="3" visible="no" active="no"/>
<layer number="34" name="bFinish" color="6" fill="6" visible="no" active="no"/>
<layer number="35" name="tGlue" color="7" fill="4" visible="no" active="no"/>
<layer number="36" name="bGlue" color="7" fill="5" visible="no" active="no"/>
<layer number="37" name="tTest" color="7" fill="1" visible="no" active="no"/>
<layer number="38" name="bTest" color="7" fill="1" visible="no" active="no"/>
<layer number="39" name="tKeepout" color="4" fill="11" visible="no" active="no"/>
<layer number="40" name="bKeepout" color="1" fill="11" visible="no" active="no"/>
<layer number="41" name="tRestrict" color="4" fill="10" visible="no" active="no"/>
<layer number="42" name="bRestrict" color="1" fill="10" visible="no" active="no"/>
<layer number="43" name="vRestrict" color="2" fill="10" visible="no" active="no"/>
<layer number="44" name="Drills" color="7" fill="1" visible="no" active="no"/>
<layer number="45" name="Holes" color="7" fill="1" visible="no" active="no"/>
<layer number="46" name="Milling" color="3" fill="1" visible="no" active="no"/>
<layer number="47" name="Measures" color="7" fill="1" visible="no" active="no"/>
<layer number="48" name="Document" color="7" fill="1" visible="no" active="no"/>
<layer number="49" name="Reference" color="7" fill="1" visible="no" active="no"/>
<layer number="51" name="tDocu" color="7" fill="1" visible="no" active="no"/>
<layer number="52" name="bDocu" color="7" fill="1" visible="no" active="no"/>
<layer number="88" name="SimResults" color="9" fill="1" visible="yes" active="yes"/>
<layer number="89" name="SimProbes" color="9" fill="1" visible="yes" active="yes"/>
<layer number="90" name="Modules" color="5" fill="1" visible="yes" active="yes"/>
<layer number="91" name="Nets" color="2" fill="1" visible="yes" active="yes"/>
<layer number="92" name="Busses" color="1" fill="1" visible="yes" active="yes"/>
<layer number="93" name="Pins" color="2" fill="1" visible="no" active="yes"/>
<layer number="94" name="Symbols" color="4" fill="1" visible="yes" active="yes"/>
<layer number="95" name="Names" color="7" fill="1" visible="yes" active="yes"/>
<layer number="96" name="Values" color="7" fill="1" visible="yes" active="yes"/>
<layer number="97" name="Info" color="7" fill="1" visible="yes" active="yes"/>
<layer number="98" name="Guide" color="6" fill="1" visible="yes" active="yes"/>
<layer number="99" name="SpiceOrder" color="7" fill="1" visible="yes" active="yes"/>
<layer number="101" name="Hidden" color="15" fill="1" visible="yes" active="yes"/>
<layer number="102" name="Changes" color="12" fill="1" visible="yes" active="yes"/>
</layers>
<schematic xreflabel="%F%N/%S.%C%R" xrefpart="/%S.%C%R">
<libraries>
<library name="ESP32-DEVKITV1">
<packages>
<package name="ESP32-DEVKITV1">
<pad name="1" x="-22.87" y="-13.54" drill="1" diameter="1.9304"/>
<pad name="2" x="-20.33" y="-13.54" drill="1" diameter="1.9304"/>
<pad name="3" x="-17.79" y="-13.54" drill="1" diameter="1.9304"/>
<pad name="4" x="-15.25" y="-13.54" drill="1" diameter="1.9304"/>
<pad name="5" x="-12.71" y="-13.54" drill="1" diameter="1.9304"/>
<pad name="6" x="-10.17" y="-13.54" drill="1" diameter="1.9304"/>
<pad name="7" x="-7.63" y="-13.54" drill="1" diameter="1.9304"/>
<pad name="8" x="-5.09" y="-13.54" drill="1" diameter="1.9304"/>
<pad name="9" x="-2.55" y="-13.54" drill="1" diameter="1.9304"/>
<pad name="10" x="-0.01" y="-13.54" drill="1" diameter="1.9304"/>
<pad name="11" x="2.53" y="-13.54" drill="1" diameter="1.9304"/>
<pad name="12" x="5.07" y="-13.54" drill="1" diameter="1.9304"/>
<pad name="13" x="7.61" y="-13.54" drill="1" diameter="1.9304"/>
<pad name="14" x="10.15" y="-13.54" drill="1" diameter="1.9304"/>
<pad name="15" x="12.69" y="-13.54" drill="1" diameter="1.9304"/>
<pad name="30" x="-22.87" y="11.23" drill="1" diameter="1.9304"/>
<pad name="29" x="-20.33" y="11.23" drill="1" diameter="1.9304"/>
<pad name="28" x="-17.79" y="11.23" drill="1" diameter="1.9304"/>
<pad name="27" x="-15.25" y="11.23" drill="1" diameter="1.9304"/>
<pad name="26" x="-12.71" y="11.23" drill="1" diameter="1.9304"/>
<pad name="25" x="-10.17" y="11.23" drill="1" diameter="1.9304"/>
<pad name="24" x="-7.63" y="11.23" drill="1" diameter="1.9304"/>
<pad name="23" x="-5.09" y="11.23" drill="1" diameter="1.9304"/>
<pad name="22" x="-2.55" y="11.23" drill="1" diameter="1.9304"/>
<pad name="21" x="-0.01" y="11.23" drill="1" diameter="1.9304"/>
<pad name="20" x="2.53" y="11.23" drill="1" diameter="1.9304"/>
<pad name="19" x="5.07" y="11.23" drill="1" diameter="1.9304"/>
<pad name="18" x="7.61" y="11.23" drill="1" diameter="1.9304"/>
<pad name="17" x="10.15" y="11.23" drill="1" diameter="1.9304"/>
<pad name="16" x="12.69" y="11.23" drill="1" diameter="1.9304"/>
<text x="-22.21" y="-11.2" size="1.016" layer="21" rot="R90">3V3</text>
<text x="-19.67" y="-11.2" size="1.016" layer="21" rot="R90">GND</text>
<text x="-17.13" y="-11.2" size="1.016" layer="21" rot="R90">IO15</text>
<text x="-14.59" y="-11.2" size="1.016" layer="21" rot="R90">IO2</text>
<text x="-12.05" y="-11.2" size="1.016" layer="21" rot="R90">IO4</text>
<text x="-9.51" y="-11.2" size="1.016" layer="21" rot="R90">IO16</text>
<text x="-6.97" y="-11.2" size="1.016" layer="21" rot="R90">IO17</text>
<text x="-4.43" y="-11.2" size="1.016" layer="21" rot="R90">IO5</text>
<text x="-1.89" y="-11.2" size="1.016" layer="21" rot="R90">IO18</text>
<text x="0.65" y="-11.2" size="1.016" layer="21" rot="R90">IO19</text>
<text x="3.19" y="-11.2" size="1.016" layer="21" rot="R90">IO21</text>
<text x="5.73" y="-11.2" size="1.016" layer="21" rot="R90">IO3</text>
<text x="8.27" y="-11.2" size="1.016" layer="21" rot="R90">IO1</text>
<text x="10.81" y="-11.2" size="1.016" layer="21" rot="R90">IO22</text>
<text x="13.35" y="-11.2" size="1.016" layer="21" rot="R90">IO23</text>
<text x="-22.19" y="6.52" size="1.016" layer="21" rot="R90">VIN</text>
<text x="-19.65" y="6.52" size="1.016" layer="21" rot="R90">GND</text>
<text x="-17.11" y="6.52" size="1.016" layer="21" rot="R90">IO13</text>
<text x="-14.57" y="6.52" size="1.016" layer="21" rot="R90">IO12</text>
<text x="-12.03" y="6.52" size="1.016" layer="21" rot="R90">IO14</text>
<text x="-9.49" y="6.52" size="1.016" layer="21" rot="R90">IO27</text>
<text x="-6.95" y="6.52" size="1.016" layer="21" rot="R90">IO26</text>
<text x="-4.41" y="6.52" size="1.016" layer="21" rot="R90">IO25</text>
<text x="-1.87" y="6.52" size="1.016" layer="21" rot="R90">IO33</text>
<text x="0.67" y="6.52" size="1.016" layer="21" rot="R90">IO32</text>
<text x="3.21" y="6.52" size="1.016" layer="21" rot="R90">IO35</text>
<text x="5.75" y="6.52" size="1.016" layer="21" rot="R90">IO34</text>
<text x="8.29" y="6.52" size="1.016" layer="21" rot="R90">VN</text>
<text x="10.83" y="6.52" size="1.016" layer="21" rot="R90">VP</text>
<text x="13.37" y="6.52" size="1.016" layer="21" rot="R90">EN</text>
<text x="-4.93" y="-3.18" size="1.9304" layer="21">ESP32-Devkit V1</text>
<wire x1="-33" y1="12.7" x2="19" y2="12.7" width="0.254" layer="21"/>
<wire x1="19" y1="12.7" x2="19" y2="-15.2" width="0.254" layer="21"/>
<wire x1="19" y1="-15.2" x2="-33" y2="-15.2" width="0.254" layer="21"/>
<wire x1="-33" y1="-15.2" x2="-33" y2="12.7" width="0.254" layer="21"/>
<text x="-24.13" y="13.97" size="1.27" layer="21">&gt;NAME</text>
<text x="5" y="-17.24" size="1.27" layer="27">ESP32-DEVKITV1</text>
</package>
</packages>
<symbols>
<symbol name="ESP32-DEVKITV1">
<wire x1="-25.4" y1="-12.7" x2="-25.4" y2="12.7" width="0.254" layer="94"/>
<wire x1="-25.4" y1="12.7" x2="16" y2="12.7" width="0.254" layer="94"/>
<wire x1="16" y1="12.7" x2="16" y2="-12.7" width="0.254" layer="94"/>
<wire x1="16" y1="-12.7" x2="-25.4" y2="-12.7" width="0.254" layer="94"/>
<pin name="3V3" x="-22.86" y="-17.78" length="middle" rot="R90"/>
<pin name="GND" x="-20.32" y="-17.78" length="middle" rot="R90"/>
<pin name="IO15" x="-17.78" y="-17.78" length="middle" rot="R90"/>
<pin name="IO2" x="-15.24" y="-17.78" length="middle" rot="R90"/>
<pin name="IO4" x="-12.7" y="-17.78" length="middle" rot="R90"/>
<pin name="IO16" x="-10.16" y="-17.78" length="middle" rot="R90"/>
<pin name="IO17" x="-7.62" y="-17.78" length="middle" rot="R90"/>
<pin name="IO5" x="-5.08" y="-17.78" length="middle" rot="R90"/>
<pin name="IO18" x="-2.54" y="-17.78" length="middle" rot="R90"/>
<pin name="IO19" x="0" y="-17.78" length="middle" rot="R90"/>
<pin name="IO21" x="2.54" y="-17.78" length="middle" rot="R90"/>
<pin name="IO3" x="5.08" y="-17.78" length="middle" rot="R90"/>
<pin name="IO1" x="7.62" y="-17.78" length="middle" rot="R90"/>
<pin name="IO22" x="10.16" y="-17.78" length="middle" rot="R90"/>
<pin name="IO23" x="12.7" y="-17.78" length="middle" rot="R90"/>
<pin name="EN" x="12.7" y="17.78" length="middle" rot="R270"/>
<pin name="VP" x="10.16" y="17.78" length="middle" rot="R270"/>
<pin name="VN" x="7.62" y="17.78" length="middle" rot="R270"/>
<pin name="IO34" x="5.08" y="17.78" length="middle" rot="R270"/>
<pin name="IO35" x="2.54" y="17.78" length="middle" rot="R270"/>
<pin name="IO32" x="0" y="17.78" length="middle" rot="R270"/>
<pin name="IO33" x="-2.54" y="17.78" length="middle" rot="R270"/>
<pin name="IO25" x="-5.08" y="17.78" length="middle" rot="R270"/>
<pin name="IO26" x="-7.62" y="17.78" length="middle" rot="R270"/>
<pin name="IO27" x="-10.16" y="17.78" length="middle" rot="R270"/>
<pin name="IO14" x="-12.7" y="17.78" length="middle" rot="R270"/>
<pin name="IO12" x="-15.24" y="17.78" length="middle" rot="R270"/>
<pin name="IO13" x="-17.78" y="17.78" length="middle" rot="R270"/>
<pin name="GND1" x="-20.32" y="17.78" length="middle" rot="R270"/>
<pin name="VIN" x="-22.86" y="17.78" length="middle" rot="R270"/>
<text x="-26.67" y="5.08" size="1.27" layer="95" rot="R90">&gt;NAME</text>
<text x="18.4" y="-12.7" size="1.27" layer="96" rot="R90">ESP32-DEVKITV1</text>
</symbol>
</symbols>
<devicesets>
<deviceset name="ESP32DEVKITV1">
<gates>
<gate name="G$1" symbol="ESP32-DEVKITV1" x="0" y="0"/>
</gates>
<devices>
<device name="" package="ESP32-DEVKITV1">
<connects>
<connect gate="G$1" pin="3V3" pad="1"/>
<connect gate="G$1" pin="EN" pad="16"/>
<connect gate="G$1" pin="GND" pad="2"/>
<connect gate="G$1" pin="GND1" pad="28"/>
<connect gate="G$1" pin="IO1" pad="13"/>
<connect gate="G$1" pin="IO12" pad="27"/>
<connect gate="G$1" pin="IO13" pad="28"/>
<connect gate="G$1" pin="IO14" pad="26"/>
<connect gate="G$1" pin="IO15" pad="3"/>
<connect gate="G$1" pin="IO16" pad="6"/>
<connect gate="G$1" pin="IO17" pad="7"/>
<connect gate="G$1" pin="IO18" pad="9"/>
<connect gate="G$1" pin="IO19" pad="10"/>
<connect gate="G$1" pin="IO2" pad="4"/>
<connect gate="G$1" pin="IO21" pad="11"/>
<connect gate="G$1" pin="IO22" pad="14"/>
<connect gate="G$1" pin="IO23" pad="15"/>
<connect gate="G$1" pin="IO25" pad="23"/>
<connect gate="G$1" pin="IO26" pad="24"/>
<connect gate="G$1" pin="IO27" pad="24"/>
<connect gate="G$1" pin="IO3" pad="12"/>
<connect gate="G$1" pin="IO32" pad="21"/>
<connect gate="G$1" pin="IO33" pad="22"/>
<connect gate="G$1" pin="IO34" pad="19"/>
<connect gate="G$1" pin="IO35" pad="20"/>
<connect gate="G$1" pin="IO4" pad="5"/>
<connect gate="G$1" pin="IO5" pad="8"/>
<connect gate="G$1" pin="VIN" pad="30"/>
<connect gate="G$1" pin="VN" pad="18"/>
<connect gate="G$1" pin="VP" pad="17"/>
</connects>
<technologies>
<technology name=""/>
</technologies>
</device>
</devices>
</deviceset>
</devicesets>
</library>
<library name="DIY Modules">
<description>&lt;b&gt;DIY Modules for Arduino, Raspberry Pi, CubieBoard etc.&lt;/b&gt;
&lt;br&gt;&lt;br&gt;
The library contains a list of symbols and footprints for popular, cheap and easy-to-use electronic modules.&lt;br&gt;
The modules are intend to work with microprocessor-based platforms such as &lt;a href="http://arduino.cc"&gt;Arduino&lt;/a&gt;, &lt;a href="http://raspberrypi.org/"&gt;Raspberry Pi&lt;/a&gt;, &lt;a href="http://cubieboard.org/"&gt;CubieBoard&lt;/a&gt;, &lt;a href="http://beagleboard.org/"&gt;BeagleBone&lt;/a&gt; and many others. There are many manufacturers of the modules in the world. Almost all of them can be bought on &lt;a href="ebay.com"&gt;ebay.com&lt;/a&gt;.&lt;br&gt;
&lt;br&gt;
By using this library, you can design a PCB for devices created with usage of modules. Even if you do not need to create PCB design, you can also use the library to quickly document your work by drawing schematics of devices built by you.&lt;br&gt;
&lt;br&gt;
The latest version, examples, photos and much more can be found at: &lt;b&gt;&lt;a href="http://diymodules.org/eagle"&gt;diymodules.org/eagle&lt;/a&gt;&lt;/b&gt;&lt;br&gt;&lt;br&gt;
Comments, suggestions and bug reports please send to: &lt;b&gt;&lt;a href="mailto:eagle@diymodules.org"&gt;eagle@diymodules.org&lt;/b&gt;&lt;/a&gt;&lt;br&gt;&lt;br&gt;
&lt;i&gt;Version: 1.8.0 (2017-Jul-02)&lt;/i&gt;&lt;br&gt;
&lt;i&gt;Created by: Miroslaw Brudnowski&lt;/i&gt;&lt;br&gt;&lt;br&gt;
&lt;i&gt;Released under the Creative Commons Attribution 4.0 International License: &lt;a href="http://creativecommons.org/licenses/by/4.0"&gt;http://creativecommons.org/licenses/by/4.0&lt;/a&gt;&lt;/i&gt;
&lt;br&gt;&lt;br&gt;
&lt;center&gt;
&lt;a href="http://diymodules.org/eagle"&gt;&lt;img src="http://www.diymodules.org/img/diymodules-lbr-image.php?v=1.8.0" alt="DIYmodules.org"&gt;&lt;/a&gt;
&lt;/center&gt;</description>
<packages>
<package name="TEMP-HUM-SENSOR-DHT11">
<description>&lt;b&gt;DHT11 - digital humidity &amp; temperature sensor&lt;/b&gt;</description>
<wire x1="-6.35" y1="2.54" x2="6.35" y2="2.54" width="0.127" layer="21"/>
<wire x1="6.35" y1="2.54" x2="6.35" y2="1.905" width="0.127" layer="21"/>
<wire x1="6.35" y1="1.905" x2="6.35" y2="-3.556" width="0.127" layer="21"/>
<wire x1="6.35" y1="-3.556" x2="3.175" y2="-3.556" width="0.127" layer="21"/>
<wire x1="3.175" y1="-3.556" x2="1.905" y2="-3.556" width="0.127" layer="21"/>
<wire x1="1.905" y1="-3.556" x2="0.635" y2="-3.556" width="0.127" layer="21"/>
<wire x1="0.635" y1="-3.556" x2="-0.635" y2="-3.556" width="0.127" layer="21"/>
<wire x1="-0.635" y1="-3.556" x2="-1.905" y2="-3.556" width="0.127" layer="21"/>
<wire x1="-1.905" y1="-3.556" x2="-3.175" y2="-3.556" width="0.127" layer="21"/>
<wire x1="-3.175" y1="-3.556" x2="-6.35" y2="-3.556" width="0.127" layer="21"/>
<wire x1="-6.35" y1="-3.556" x2="-6.35" y2="1.905" width="0.127" layer="21"/>
<pad name="1" x="-3.81" y="0" drill="0.8" shape="square"/>
<pad name="2" x="-1.27" y="0" drill="0.8"/>
<text x="0" y="3.81" size="1.27" layer="25" align="bottom-center">&gt;NAME</text>
<text x="0" y="-5.08" size="1.27" layer="27" align="top-center">&gt;VALUE</text>
<pad name="3" x="1.27" y="0" drill="0.8"/>
<pad name="4" x="3.81" y="0" drill="0.8"/>
<wire x1="-6.35" y1="1.905" x2="-6.35" y2="2.54" width="0.127" layer="21"/>
<wire x1="-0.635" y1="-3.556" x2="-0.635" y2="-1.905" width="0.127" layer="21"/>
<wire x1="-0.635" y1="-1.905" x2="0.635" y2="-1.905" width="0.127" layer="21"/>
<wire x1="0.635" y1="-1.905" x2="0.635" y2="-3.556" width="0.127" layer="21"/>
<wire x1="-3.175" y1="-3.556" x2="-3.175" y2="-1.905" width="0.127" layer="21"/>
<wire x1="-3.175" y1="-1.905" x2="-1.905" y2="-1.905" width="0.127" layer="21"/>
<wire x1="-1.905" y1="-1.905" x2="-1.905" y2="-3.556" width="0.127" layer="21"/>
<wire x1="1.905" y1="-3.556" x2="1.905" y2="-1.905" width="0.127" layer="21"/>
<wire x1="1.905" y1="-1.905" x2="3.175" y2="-1.905" width="0.127" layer="21"/>
<wire x1="3.175" y1="-1.905" x2="3.175" y2="-3.556" width="0.127" layer="21"/>
<wire x1="-6.35" y1="1.905" x2="6.35" y2="1.905" width="0.127" layer="21"/>
</package>
<package name="GAS-SENSOR-MQ2">
<description>&lt;b&gt;Gas Sensor&lt;/b&gt; based on &lt;b&gt;MQ-2&lt;/b&gt; device</description>
<wire x1="-16.256" y1="10.16" x2="16.256" y2="10.16" width="0.127" layer="21"/>
<wire x1="16.256" y1="10.16" x2="16.256" y2="-10.16" width="0.127" layer="21"/>
<wire x1="16.256" y1="-10.16" x2="-16.256" y2="-10.16" width="0.127" layer="21"/>
<wire x1="-16.256" y1="-10.16" x2="-16.256" y2="10.16" width="0.127" layer="21"/>
<pad name="1" x="-14.605" y="3.81" drill="1" shape="square"/>
<pad name="2" x="-14.605" y="1.27" drill="1"/>
<pad name="3" x="-14.605" y="-1.27" drill="1"/>
<circle x="3.81" y="0" radius="9.779" width="0.127" layer="21"/>
<wire x1="-15.875" y1="4.445" x2="-15.24" y2="5.08" width="0.127" layer="21"/>
<wire x1="-15.24" y1="5.08" x2="-13.97" y2="5.08" width="0.127" layer="21"/>
<wire x1="-13.97" y1="5.08" x2="-13.335" y2="4.445" width="0.127" layer="21"/>
<wire x1="-13.335" y1="4.445" x2="-13.335" y2="3.175" width="0.127" layer="21"/>
<wire x1="-13.335" y1="3.175" x2="-13.97" y2="2.54" width="0.127" layer="21"/>
<wire x1="-13.97" y1="2.54" x2="-13.335" y2="1.905" width="0.127" layer="21"/>
<wire x1="-13.335" y1="1.905" x2="-13.335" y2="0.635" width="0.127" layer="21"/>
<wire x1="-13.335" y1="0.635" x2="-13.97" y2="0" width="0.127" layer="21"/>
<wire x1="-13.97" y1="0" x2="-13.335" y2="-0.635" width="0.127" layer="21"/>
<wire x1="-13.335" y1="-0.635" x2="-13.335" y2="-1.905" width="0.127" layer="21"/>
<wire x1="-13.335" y1="-1.905" x2="-13.97" y2="-2.54" width="0.127" layer="21"/>
<wire x1="-15.24" y1="-2.54" x2="-15.875" y2="-1.905" width="0.127" layer="21"/>
<wire x1="-15.875" y1="-1.905" x2="-15.875" y2="-0.635" width="0.127" layer="21"/>
<wire x1="-15.875" y1="-0.635" x2="-15.24" y2="0" width="0.127" layer="21"/>
<wire x1="-15.24" y1="0" x2="-15.875" y2="0.635" width="0.127" layer="21"/>
<wire x1="-15.875" y1="0.635" x2="-15.875" y2="1.905" width="0.127" layer="21"/>
<wire x1="-15.875" y1="1.905" x2="-15.24" y2="2.54" width="0.127" layer="21"/>
<wire x1="-15.24" y1="2.54" x2="-15.875" y2="3.175" width="0.127" layer="21"/>
<wire x1="-15.875" y1="3.175" x2="-15.875" y2="4.445" width="0.127" layer="21"/>
<text x="0" y="11.43" size="1.27" layer="25" align="bottom-center">&gt;NAME</text>
<text x="0" y="-11.43" size="1.27" layer="27" align="top-center">&gt;VALUE</text>
<pad name="4" x="-14.605" y="-3.81" drill="1"/>
<wire x1="-15.24" y1="-2.54" x2="-15.875" y2="-3.175" width="0.127" layer="21"/>
<wire x1="-15.875" y1="-3.175" x2="-15.875" y2="-4.445" width="0.127" layer="21"/>
<wire x1="-15.875" y1="-4.445" x2="-15.24" y2="-5.08" width="0.127" layer="21"/>
<wire x1="-15.24" y1="-5.08" x2="-13.97" y2="-5.08" width="0.127" layer="21"/>
<wire x1="-13.97" y1="-5.08" x2="-13.335" y2="-4.445" width="0.127" layer="21"/>
<wire x1="-13.335" y1="-4.445" x2="-13.335" y2="-3.175" width="0.127" layer="21"/>
<wire x1="-13.335" y1="-3.175" x2="-13.97" y2="-2.54" width="0.127" layer="21"/>
<hole x="-13.589" y="7.62" drill="2.8"/>
<hole x="-13.589" y="-7.62" drill="2.8"/>
<hole x="13.589" y="-7.62" drill="2.8"/>
<hole x="13.589" y="7.62" drill="2.8"/>
<text x="3.81" y="0" size="1.778" layer="21" align="center">SENSOR</text>
</package>
<package name="FLAME-DETECTOR">
<description>&lt;b&gt;Flame Detector&lt;/b&gt;</description>
<wire x1="-15.24" y1="7.62" x2="15.24" y2="7.62" width="0.127" layer="21"/>
<wire x1="15.24" y1="7.62" x2="15.24" y2="2.54" width="0.127" layer="21"/>
<wire x1="15.24" y1="2.54" x2="15.24" y2="-2.54" width="0.127" layer="21"/>
<wire x1="15.24" y1="-2.54" x2="15.24" y2="-7.62" width="0.127" layer="21"/>
<wire x1="15.24" y1="-7.62" x2="-15.24" y2="-7.62" width="0.127" layer="21"/>
<wire x1="-15.24" y1="-7.62" x2="-15.24" y2="7.62" width="0.127" layer="21"/>
<hole x="-6.35" y="0" drill="3"/>
<pad name="1" x="-11.43" y="3.81" drill="1" shape="square"/>
<pad name="2" x="-11.43" y="1.27" drill="1"/>
<pad name="3" x="-11.43" y="-1.27" drill="1"/>
<pad name="4" x="-11.43" y="-3.81" drill="1"/>
<wire x1="15.24" y1="2.54" x2="22.86" y2="2.54" width="0.127" layer="21"/>
<wire x1="15.24" y1="-2.54" x2="22.86" y2="-2.54" width="0.127" layer="21"/>
<wire x1="22.86" y1="2.54" x2="22.86" y2="-2.54" width="0.127" layer="21" curve="-180"/>
<text x="20.32" y="0" size="1.778" layer="21" align="center">DET</text>
<text x="0" y="8.89" size="1.27" layer="25" align="bottom-center">&gt;NAME</text>
<text x="0" y="-8.89" size="1.27" layer="27" align="top-center">&gt;VALUE</text>
<wire x1="-12.7" y1="4.445" x2="-12.065" y2="5.08" width="0.127" layer="21"/>
<wire x1="-12.065" y1="5.08" x2="-10.795" y2="5.08" width="0.127" layer="21"/>
<wire x1="-10.795" y1="5.08" x2="-10.16" y2="4.445" width="0.127" layer="21"/>
<wire x1="-10.16" y1="4.445" x2="-10.16" y2="3.175" width="0.127" layer="21"/>
<wire x1="-10.16" y1="3.175" x2="-10.795" y2="2.54" width="0.127" layer="21"/>
<wire x1="-10.795" y1="2.54" x2="-10.16" y2="1.905" width="0.127" layer="21"/>
<wire x1="-10.16" y1="1.905" x2="-10.16" y2="0.635" width="0.127" layer="21"/>
<wire x1="-10.16" y1="0.635" x2="-10.795" y2="0" width="0.127" layer="21"/>
<wire x1="-10.795" y1="0" x2="-10.16" y2="-0.635" width="0.127" layer="21"/>
<wire x1="-10.16" y1="-0.635" x2="-10.16" y2="-1.905" width="0.127" layer="21"/>
<wire x1="-10.16" y1="-1.905" x2="-10.795" y2="-2.54" width="0.127" layer="21"/>
<wire x1="-10.795" y1="-2.54" x2="-10.16" y2="-3.175" width="0.127" layer="21"/>
<wire x1="-10.16" y1="-3.175" x2="-10.16" y2="-4.445" width="0.127" layer="21"/>
<wire x1="-10.16" y1="-4.445" x2="-10.795" y2="-5.08" width="0.127" layer="21"/>
<wire x1="-10.795" y1="-5.08" x2="-12.065" y2="-5.08" width="0.127" layer="21"/>
<wire x1="-12.065" y1="-5.08" x2="-12.7" y2="-4.445" width="0.127" layer="21"/>
<wire x1="-12.7" y1="-4.445" x2="-12.7" y2="-3.175" width="0.127" layer="21"/>
<wire x1="-12.7" y1="-3.175" x2="-12.065" y2="-2.54" width="0.127" layer="21"/>
<wire x1="-12.065" y1="-2.54" x2="-12.7" y2="-1.905" width="0.127" layer="21"/>
<wire x1="-12.7" y1="-1.905" x2="-12.7" y2="-0.635" width="0.127" layer="21"/>
<wire x1="-12.7" y1="-0.635" x2="-12.065" y2="0" width="0.127" layer="21"/>
<wire x1="-12.065" y1="0" x2="-12.7" y2="0.635" width="0.127" layer="21"/>
<wire x1="-12.7" y1="0.635" x2="-12.7" y2="1.905" width="0.127" layer="21"/>
<wire x1="-12.7" y1="1.905" x2="-12.065" y2="2.54" width="0.127" layer="21"/>
<wire x1="-12.065" y1="2.54" x2="-12.7" y2="3.175" width="0.127" layer="21"/>
<wire x1="-12.7" y1="3.175" x2="-12.7" y2="4.445" width="0.127" layer="21"/>
</package>
<package name="UV-SENSOR-ML8511">
<description>&lt;b&gt;UV  Sensor&lt;/b&gt; based on &lt;b&gt;ML8511&lt;/b&gt; device</description>
<wire x1="-5.08" y1="6.35" x2="-3.81" y2="6.35" width="0.127" layer="21"/>
<text x="0" y="7.62" size="1.27" layer="25" align="bottom-center">&gt;NAME</text>
<text x="0" y="-7.62" size="1.27" layer="27" align="top-center">&gt;VALUE</text>
<pad name="1" x="-4.445" y="5.08" drill="1" shape="square"/>
<pad name="2" x="-4.445" y="2.54" drill="1"/>
<pad name="3" x="-4.445" y="0" drill="1"/>
<pad name="4" x="-4.445" y="-2.54" drill="1"/>
<wire x1="-3.81" y1="6.35" x2="-3.175" y2="5.715" width="0.127" layer="21"/>
<wire x1="-3.175" y1="5.715" x2="-3.175" y2="4.445" width="0.127" layer="21"/>
<wire x1="-3.175" y1="4.445" x2="-3.81" y2="3.81" width="0.127" layer="21"/>
<wire x1="-3.81" y1="3.81" x2="-3.175" y2="3.175" width="0.127" layer="21"/>
<wire x1="-3.175" y1="3.175" x2="-3.175" y2="1.905" width="0.127" layer="21"/>
<wire x1="-3.175" y1="1.905" x2="-3.81" y2="1.27" width="0.127" layer="21"/>
<wire x1="-3.81" y1="1.27" x2="-3.175" y2="0.635" width="0.127" layer="21"/>
<wire x1="-3.175" y1="0.635" x2="-3.175" y2="-0.635" width="0.127" layer="21"/>
<wire x1="-3.175" y1="-0.635" x2="-3.81" y2="-1.27" width="0.127" layer="21"/>
<wire x1="-3.81" y1="-1.27" x2="-3.175" y2="-1.905" width="0.127" layer="21"/>
<wire x1="-3.175" y1="-1.905" x2="-3.175" y2="-3.175" width="0.127" layer="21"/>
<wire x1="-3.175" y1="-3.175" x2="-3.81" y2="-3.81" width="0.127" layer="21"/>
<wire x1="-5.715" y1="5.715" x2="-5.08" y2="6.35" width="0.127" layer="21"/>
<wire x1="-5.715" y1="4.445" x2="-5.08" y2="3.81" width="0.127" layer="21"/>
<wire x1="-5.08" y1="3.81" x2="-5.715" y2="3.175" width="0.127" layer="21"/>
<wire x1="-5.715" y1="1.905" x2="-5.08" y2="1.27" width="0.127" layer="21"/>
<wire x1="-5.08" y1="1.27" x2="-5.715" y2="0.635" width="0.127" layer="21"/>
<wire x1="-5.715" y1="-0.635" x2="-5.08" y2="-1.27" width="0.127" layer="21"/>
<wire x1="-5.08" y1="-1.27" x2="-5.715" y2="-1.905" width="0.127" layer="21"/>
<wire x1="-5.715" y1="-3.175" x2="-5.08" y2="-3.81" width="0.127" layer="21"/>
<text x="-2.54" y="0" size="1.27" layer="21" align="center-left">GND</text>
<wire x1="-5.969" y1="6.604" x2="5.969" y2="6.604" width="0.127" layer="21"/>
<wire x1="5.969" y1="6.604" x2="5.969" y2="-6.604" width="0.127" layer="21"/>
<wire x1="5.969" y1="-6.604" x2="-5.969" y2="-6.604" width="0.127" layer="21"/>
<wire x1="-5.969" y1="-6.604" x2="-5.969" y2="6.604" width="0.127" layer="21"/>
<wire x1="-5.715" y1="5.715" x2="-5.715" y2="4.445" width="0.127" layer="21"/>
<wire x1="-5.715" y1="3.175" x2="-5.715" y2="1.905" width="0.127" layer="21"/>
<wire x1="-5.715" y1="0.635" x2="-5.715" y2="-0.635" width="0.127" layer="21"/>
<wire x1="-5.715" y1="-1.905" x2="-5.715" y2="-3.175" width="0.127" layer="21"/>
<text x="-2.54" y="2.54" size="1.27" layer="21" align="center-left">3V3</text>
<text x="-2.54" y="5.08" size="1.27" layer="21" align="center-left">VIN</text>
<text x="-2.54" y="-2.54" size="1.27" layer="21" align="center-left">OUT</text>
<hole x="3.175" y="3.81" drill="3"/>
<wire x1="1.524" y1="-0.635" x2="5.334" y2="-0.635" width="0.127" layer="21"/>
<wire x1="5.334" y1="-0.635" x2="5.334" y2="-4.445" width="0.127" layer="21"/>
<wire x1="5.334" y1="-4.445" x2="1.524" y2="-4.445" width="0.127" layer="21"/>
<wire x1="1.524" y1="-4.445" x2="1.524" y2="-0.635" width="0.127" layer="21"/>
<wire x1="-5.08" y1="-3.81" x2="-5.715" y2="-4.445" width="0.127" layer="21"/>
<wire x1="-5.715" y1="-4.445" x2="-5.715" y2="-5.715" width="0.127" layer="21"/>
<wire x1="-5.715" y1="-5.715" x2="-5.08" y2="-6.35" width="0.127" layer="21"/>
<wire x1="-5.08" y1="-6.35" x2="-3.81" y2="-6.35" width="0.127" layer="21"/>
<wire x1="-3.81" y1="-6.35" x2="-3.175" y2="-5.715" width="0.127" layer="21"/>
<wire x1="-3.175" y1="-5.715" x2="-3.175" y2="-4.445" width="0.127" layer="21"/>
<wire x1="-3.175" y1="-4.445" x2="-3.81" y2="-3.81" width="0.127" layer="21"/>
<pad name="5" x="-4.445" y="-5.08" drill="1"/>
<text x="-2.54" y="-5.08" size="1.27" layer="21" align="center-left">EN</text>
</package>
</packages>
<symbols>
<symbol name="TEMP-HUM-SENSOR-DHT11">
<description>&lt;b&gt;DHT11 - digital humidity &amp; temperature sensor&lt;/b&gt;</description>
<pin name="VDD" x="-12.7" y="5.08" length="middle" direction="pwr"/>
<pin name="DAT" x="-12.7" y="2.54" length="middle"/>
<pin name="N.C." x="-12.7" y="0" length="middle" direction="pas"/>
<pin name="GND" x="-12.7" y="-2.54" length="middle" direction="pwr"/>
<wire x1="-7.62" y1="10.16" x2="5.08" y2="10.16" width="0.254" layer="94"/>
<wire x1="5.08" y1="10.16" x2="5.08" y2="4.064" width="0.254" layer="94"/>
<wire x1="5.08" y1="4.064" x2="5.08" y2="2.286" width="0.254" layer="94"/>
<wire x1="5.08" y1="2.286" x2="5.08" y2="0.254" width="0.254" layer="94"/>
<wire x1="5.08" y1="0.254" x2="5.08" y2="-1.524" width="0.254" layer="94"/>
<wire x1="5.08" y1="-1.524" x2="5.08" y2="-3.556" width="0.254" layer="94"/>
<wire x1="5.08" y1="-3.556" x2="5.08" y2="-7.62" width="0.254" layer="94"/>
<wire x1="5.08" y1="-7.62" x2="-7.62" y2="-7.62" width="0.254" layer="94"/>
<wire x1="-7.62" y1="-7.62" x2="-7.62" y2="10.16" width="0.254" layer="94"/>
<wire x1="4.826" y1="6.096" x2="1.27" y2="6.096" width="0.254" layer="94"/>
<wire x1="1.27" y1="6.096" x2="1.27" y2="4.064" width="0.254" layer="94"/>
<wire x1="1.27" y1="4.064" x2="5.08" y2="4.064" width="0.254" layer="94"/>
<wire x1="5.08" y1="2.286" x2="1.27" y2="2.286" width="0.254" layer="94"/>
<wire x1="1.27" y1="2.286" x2="1.27" y2="0.254" width="0.254" layer="94"/>
<wire x1="1.27" y1="0.254" x2="5.08" y2="0.254" width="0.254" layer="94"/>
<wire x1="5.08" y1="-1.524" x2="1.27" y2="-1.524" width="0.254" layer="94"/>
<wire x1="1.27" y1="-1.524" x2="1.27" y2="-3.556" width="0.254" layer="94"/>
<wire x1="1.27" y1="-3.556" x2="5.08" y2="-3.556" width="0.254" layer="94"/>
<text x="-7.62" y="15.24" size="1.778" layer="95">&gt;NAME</text>
<text x="-7.62" y="12.7" size="1.778" layer="95">&gt;VALUE</text>
</symbol>
<symbol name="GAS-SENSOR-MQ2">
<description>&lt;b&gt;Gas Sensor&lt;/b&gt; based on &lt;b&gt;MQ-2&lt;/b&gt; device</description>
<pin name="VCC" x="-20.32" y="2.54" length="middle" direction="pwr"/>
<pin name="GND" x="-20.32" y="0" length="middle" direction="pwr"/>
<pin name="DO" x="-20.32" y="-2.54" length="middle" direction="out"/>
<wire x1="-15.24" y1="7.62" x2="-15.24" y2="-10.16" width="0.254" layer="94"/>
<wire x1="-15.24" y1="-10.16" x2="15.24" y2="-10.16" width="0.254" layer="94"/>
<wire x1="15.24" y1="-10.16" x2="15.24" y2="7.62" width="0.254" layer="94"/>
<wire x1="15.24" y1="7.62" x2="-15.24" y2="7.62" width="0.254" layer="94"/>
<circle x="5.08" y="-1.27" radius="7.62" width="0.254" layer="94"/>
<text x="-15.24" y="12.7" size="1.778" layer="95">&gt;NAME</text>
<text x="-15.24" y="10.16" size="1.778" layer="96">&gt;VALUE</text>
<pin name="AO" x="-20.32" y="-5.08" length="middle" direction="out"/>
</symbol>
<symbol name="FLAME-DETECTOR">
<description>&lt;b&gt;Flame Detector&lt;/b&gt;</description>
<pin name="VCC" x="-20.32" y="5.08" length="middle" direction="pwr"/>
<pin name="GND" x="-20.32" y="2.54" length="middle" direction="pwr"/>
<pin name="DO" x="-20.32" y="0" length="middle"/>
<pin name="AO" x="-20.32" y="-2.54" length="middle"/>
<wire x1="-15.24" y1="10.16" x2="15.24" y2="10.16" width="0.254" layer="94"/>
<wire x1="15.24" y1="10.16" x2="15.24" y2="5.08" width="0.254" layer="94"/>
<wire x1="15.24" y1="5.08" x2="15.24" y2="-2.54" width="0.254" layer="94"/>
<wire x1="15.24" y1="-2.54" x2="15.24" y2="-7.62" width="0.254" layer="94"/>
<wire x1="15.24" y1="-7.62" x2="-15.24" y2="-7.62" width="0.254" layer="94"/>
<wire x1="-15.24" y1="-7.62" x2="-15.24" y2="10.16" width="0.254" layer="94"/>
<wire x1="15.24" y1="5.08" x2="5.08" y2="5.08" width="0.254" layer="94"/>
<wire x1="5.08" y1="5.08" x2="5.08" y2="-2.54" width="0.254" layer="94"/>
<wire x1="5.08" y1="-2.54" x2="15.24" y2="-2.54" width="0.254" layer="94"/>
<text x="10.16" y="1.27" size="1.778" layer="94" align="center">DET</text>
<text x="-15.24" y="15.24" size="1.778" layer="95">&gt;NAME</text>
<text x="-15.24" y="12.7" size="1.778" layer="96">&gt;VALUE</text>
</symbol>
<symbol name="UV-SENSOR-ML8511">
<description>&lt;b&gt;UV  Sensor&lt;/b&gt; based on &lt;b&gt;ML8511&lt;/b&gt; device</description>
<pin name="VIN" x="-15.24" y="5.08" length="middle" direction="pwr"/>
<pin name="3V3" x="-15.24" y="2.54" length="middle" direction="pwr"/>
<pin name="GND" x="-15.24" y="0" length="middle" direction="pwr"/>
<pin name="OUT" x="-15.24" y="-2.54" length="middle"/>
<wire x1="-10.16" y1="10.16" x2="10.16" y2="10.16" width="0.254" layer="94"/>
<wire x1="10.16" y1="-10.16" x2="-10.16" y2="-10.16" width="0.254" layer="94"/>
<wire x1="-10.16" y1="-10.16" x2="-10.16" y2="10.16" width="0.254" layer="94"/>
<text x="-10.16" y="15.24" size="1.778" layer="95">&gt;NAME</text>
<text x="-10.16" y="12.7" size="1.778" layer="95">&gt;VALUE</text>
<wire x1="10.16" y1="10.16" x2="10.16" y2="-10.16" width="0.254" layer="94"/>
<wire x1="7.62" y1="-7.62" x2="7.62" y2="0" width="0.254" layer="94"/>
<wire x1="7.62" y1="0" x2="0" y2="0" width="0.254" layer="94"/>
<wire x1="0" y1="0" x2="0" y2="-7.62" width="0.254" layer="94"/>
<wire x1="0" y1="-7.62" x2="7.62" y2="-7.62" width="0.254" layer="94"/>
<pin name="EN" x="-15.24" y="-5.08" length="middle"/>
</symbol>
</symbols>
<devicesets>
<deviceset name="TEMP-HUM-SENSOR-DHT11">
<description>&lt;b&gt;DHT11 - digital humidity &amp; temperature sensor&lt;/b&gt;
&lt;p&gt;&lt;b&gt;DHT11&lt;/b&gt; datasheet available here:&lt;br&gt;
&lt;a href="https://akizukidenshi.com/download/ds/aosong/DHT11.pdf"&gt;https://akizukidenshi.com/download/ds/aosong/DHT11.pdf&lt;/a&gt;&lt;/p&gt;
&lt;p&gt;&lt;b&gt;&lt;a href="http://www.ebay.com/sch/dht11+digital+sensor"&gt;Click here to find device on ebay.com&lt;/a&gt;&lt;/b&gt;&lt;/p&gt;

&lt;p&gt;&lt;img alt="photo" src="http://www.diymodules.org/img/device-photo.php?name=TEMP-HUM-SENSOR-DHT11"&gt;&lt;/p&gt;</description>
<gates>
<gate name="G$1" symbol="TEMP-HUM-SENSOR-DHT11" x="0" y="0"/>
</gates>
<devices>
<device name="" package="TEMP-HUM-SENSOR-DHT11">
<connects>
<connect gate="G$1" pin="DAT" pad="2"/>
<connect gate="G$1" pin="GND" pad="4"/>
<connect gate="G$1" pin="N.C." pad="3"/>
<connect gate="G$1" pin="VDD" pad="1"/>
</connects>
<technologies>
<technology name=""/>
</technologies>
</device>
</devices>
</deviceset>
<deviceset name="GAS-SENSOR-MQ2">
<description>&lt;b&gt;Gas Sensor&lt;/b&gt; based on &lt;b&gt;MQ-2&lt;/b&gt; device
&lt;p&gt;Guide describing how to use &lt;b&gt;MQ-2&lt;/b&gt; sensor with Arduino is available here:&lt;br /&gt;
&lt;a href="http://www.instructables.com/id/How-to-use-MQ2-Gas-Sensor-Arduino-Tutorial/"&gt;http://www.instructables.com/id/How-to-use-MQ2-Gas-Sensor-Arduino-Tutorial/&lt;/a&gt;&lt;/p&gt;
&lt;p&gt;&lt;b&gt;MQ-2&lt;/b&gt; sensor datasheet is available here:&lt;br /&gt;
&lt;a href="http://gas-sensor.ru/pdf/combustible-gas-sensor.pdf"&gt;http://gas-sensor.ru/pdf/combustible-gas-sensor.pdf&lt;/a&gt;&lt;/p&gt;
&lt;p&gt;&lt;b&gt;&lt;a href="http://www.ebay.com/sch/mq2+sensor+module+smoke"&gt;Click here to find device on ebay.com&lt;/a&gt;&lt;/b&gt;&lt;/p&gt;
&lt;p&gt;&lt;img alt="photo" src="http://www.diymodules.org/img/device-photo.php?name=GAS-SENSOR-MQ2"&gt;&lt;/p&gt;</description>
<gates>
<gate name="G$1" symbol="GAS-SENSOR-MQ2" x="0" y="0"/>
</gates>
<devices>
<device name="" package="GAS-SENSOR-MQ2">
<connects>
<connect gate="G$1" pin="AO" pad="4"/>
<connect gate="G$1" pin="DO" pad="3"/>
<connect gate="G$1" pin="GND" pad="2"/>
<connect gate="G$1" pin="VCC" pad="1"/>
</connects>
<technologies>
<technology name=""/>
</technologies>
</device>
</devices>
</deviceset>
<deviceset name="FLAME-DETECTOR">
<description>&lt;b&gt;Flame Detector&lt;/b&gt;
&lt;p&gt;&lt;b&gt;&lt;a href="http://www.ebay.com/sch/flame+detector+arduino"&gt;Click here to find device on ebay.com&lt;/a&gt;&lt;/b&gt;&lt;/p&gt;

&lt;p&gt;&lt;img alt="photo" src="http://www.diymodules.org/img/device-photo.php?name=FLAME-DETECTOR"&gt;&lt;/p&gt;</description>
<gates>
<gate name="G$1" symbol="FLAME-DETECTOR" x="0" y="0"/>
</gates>
<devices>
<device name="" package="FLAME-DETECTOR">
<connects>
<connect gate="G$1" pin="AO" pad="4"/>
<connect gate="G$1" pin="DO" pad="3"/>
<connect gate="G$1" pin="GND" pad="2"/>
<connect gate="G$1" pin="VCC" pad="1"/>
</connects>
<technologies>
<technology name=""/>
</technologies>
</device>
</devices>
</deviceset>
<deviceset name="UV-SENSOR-ML8511">
<description>&lt;b&gt;UV  Sensor&lt;/b&gt; based on &lt;b&gt;ML8511&lt;/b&gt; device
&lt;p&gt;&lt;b&gt;ML8511&lt;/b&gt; user's guide is available here:&lt;br /&gt;
&lt;a href="https://learn.sparkfun.com/tutorials/ml8511-uv-sensor-hookup-guide/using-the-ml8511"&gt;https://learn.sparkfun.com/tutorials/ml8511-uv-sensor-hookup-guide/using-the-ml8511&lt;/a&gt;&lt;/p&gt;
&lt;p&gt;&lt;b&gt;ML8511&lt;/b&gt; datasheet is available here:&lt;br /&gt;
&lt;a href="https://www.mcs.anl.gov/research/projects/waggle/downloads/datasheets/lightsense/ml8511.pdf"&gt;https://www.mcs.anl.gov/research/projects/waggle/downloads/datasheets/lightsense/ml8511.pdf&lt;/a&gt;&lt;/p&gt;
&lt;p&gt;&lt;b&gt;&lt;a href="http://www.ebay.com/sch/ml8511+module"&gt;Click here to find device on ebay.com&lt;/a&gt;&lt;/b&gt;&lt;/p&gt;
&lt;p&gt;&lt;img alt="photo" src="http://www.diymodules.org/img/device-photo.php?name=UV-SENSOR-ML8511"&gt;&lt;/p&gt;</description>
<gates>
<gate name="G$1" symbol="UV-SENSOR-ML8511" x="0" y="0"/>
</gates>
<devices>
<device name="" package="UV-SENSOR-ML8511">
<connects>
<connect gate="G$1" pin="3V3" pad="2"/>
<connect gate="G$1" pin="EN" pad="5"/>
<connect gate="G$1" pin="GND" pad="3"/>
<connect gate="G$1" pin="OUT" pad="4"/>
<connect gate="G$1" pin="VIN" pad="1"/>
</connects>
<technologies>
<technology name=""/>
</technologies>
</device>
</devices>
</deviceset>
</devicesets>
</library>
<library name="supply1" urn="urn:adsk.eagle:library:371">
<description>&lt;b&gt;Supply Symbols&lt;/b&gt;&lt;p&gt;
 GND, VCC, 0V, +5V, -5V, etc.&lt;p&gt;
 Please keep in mind, that these devices are necessary for the
 automatic wiring of the supply signals.&lt;p&gt;
 The pin name defined in the symbol is identical to the net which is to be wired automatically.&lt;p&gt;
 In this library the device names are the same as the pin names of the symbols, therefore the correct signal names appear next to the supply symbols in the schematic.&lt;p&gt;
 &lt;author&gt;Created by librarian@cadsoft.de&lt;/author&gt;</description>
<packages>
</packages>
<symbols>
<symbol name="VCC" urn="urn:adsk.eagle:symbol:26928/1" library_version="1">
<wire x1="1.27" y1="-1.905" x2="0" y2="0" width="0.254" layer="94"/>
<wire x1="0" y1="0" x2="-1.27" y2="-1.905" width="0.254" layer="94"/>
<text x="-2.54" y="-2.54" size="1.778" layer="96" rot="R90">&gt;VALUE</text>
<pin name="VCC" x="0" y="-2.54" visible="off" length="short" direction="sup" rot="R90"/>
</symbol>
</symbols>
<devicesets>
<deviceset name="VCC" urn="urn:adsk.eagle:component:26957/1" prefix="P+" library_version="1">
<description>&lt;b&gt;SUPPLY SYMBOL&lt;/b&gt;</description>
<gates>
<gate name="VCC" symbol="VCC" x="0" y="0"/>
</gates>
<devices>
<device name="">
<technologies>
<technology name=""/>
</technologies>
</device>
</devices>
</deviceset>
</devicesets>
</library>
<library name="ngspice-simulation" urn="urn:adsk.eagle:library:527439">
<description>SPICE compatible library parts</description>
<packages>
</packages>
<symbols>
<symbol name="R" urn="urn:adsk.eagle:symbol:527454/4" library_version="18">
<description>RESISTOR</description>
<wire x1="-2.54" y1="-0.889" x2="2.54" y2="-0.889" width="0.254" layer="94"/>
<wire x1="2.54" y1="0.889" x2="-2.54" y2="0.889" width="0.254" layer="94"/>
<wire x1="2.54" y1="-0.889" x2="2.54" y2="0.889" width="0.254" layer="94"/>
<wire x1="-2.54" y1="-0.889" x2="-2.54" y2="0.889" width="0.254" layer="94"/>
<pin name="1" x="-5.08" y="0" visible="off" length="short" direction="pas" swaplevel="1"/>
<pin name="2" x="5.08" y="0" visible="off" length="short" direction="pas" swaplevel="1" rot="R180"/>
<text x="-2.54" y="2.54" size="1.778" layer="95">&gt;NAME</text>
<text x="-2.54" y="-6.35" size="1.778" layer="97">&gt;SPICEMODEL</text>
<text x="-2.54" y="-3.81" size="1.778" layer="96">&gt;VALUE</text>
<text x="-2.54" y="-8.89" size="1.778" layer="97">&gt;SPICEEXTRA</text>
</symbol>
</symbols>
<devicesets>
<deviceset name="R" urn="urn:adsk.eagle:component:527474/6" prefix="R" uservalue="yes" library_version="18">
<description>RESISTOR</description>
<gates>
<gate name="G$1" symbol="R" x="0" y="0"/>
</gates>
<devices>
<device name="">
<technologies>
<technology name="">
<attribute name="_EXTERNAL_" value="" constant="no"/>
</technology>
</technologies>
</device>
</devices>
<spice>
<pinmapping spiceprefix="R">
<pinmap gate="G$1" pin="1" pinorder="1"/>
<pinmap gate="G$1" pin="2" pinorder="2"/>
</pinmapping>
</spice>
</deviceset>
</devicesets>
</library>
</libraries>
<attributes>
</attributes>
<variantdefs>
</variantdefs>
<classes>
<class number="0" name="default" width="0" drill="0">
</class>
</classes>
<parts>
<part name="U$1" library="ESP32-DEVKITV1" deviceset="ESP32DEVKITV1" device=""/>
<part name="DHT11" library="DIY Modules" deviceset="TEMP-HUM-SENSOR-DHT11" device="" value="Sensor de Temperatura e Umidade"/>
<part name="P+1" library="supply1" library_urn="urn:adsk.eagle:library:371" deviceset="VCC" device="" value="5 V"/>
<part name="R1" library="ngspice-simulation" library_urn="urn:adsk.eagle:library:527439" deviceset="R" device="" value="6.7k"/>
<part name="MQ-135" library="DIY Modules" deviceset="GAS-SENSOR-MQ2" device="" value="Sensor de Gases Tóxicos e Fumaça"/>
<part name="F1" library="DIY Modules" deviceset="FLAME-DETECTOR" device="" value="Sensor de Fogo"/>
<part name="GUVA-S12SD" library="DIY Modules" deviceset="UV-SENSOR-ML8511" device="" value="Sensor UV"/>
<part name="R2" library="ngspice-simulation" library_urn="urn:adsk.eagle:library:527439" deviceset="R" device="" value="6.7k"/>
<part name="R3" library="ngspice-simulation" library_urn="urn:adsk.eagle:library:527439" deviceset="R" device="" value="6.7k"/>
</parts>
<sheets>
<sheet>
<plain>
</plain>
<instances>
<instance part="U$1" gate="G$1" x="-114.3" y="48.26" smashed="yes">
<attribute name="NAME" x="-140.97" y="53.34" size="1.27" layer="95" rot="R90"/>
</instance>
<instance part="DHT11" gate="G$1" x="-124.46" y="0" smashed="yes" rot="R90">
<attribute name="NAME" x="-139.7" y="-7.62" size="1.778" layer="95" rot="R90"/>
<attribute name="VALUE" x="-137.16" y="-7.62" size="1.778" layer="95" rot="R90"/>
</instance>
<instance part="P+1" gate="VCC" x="-137.16" y="88.9" smashed="yes">
<attribute name="VALUE" x="-139.7" y="86.36" size="1.778" layer="96" rot="R90"/>
</instance>
<instance part="R1" gate="G$1" x="-129.54" y="-25.4" smashed="yes" rot="MR270">
<attribute name="NAME" x="-132.08" y="-22.86" size="1.778" layer="95" rot="MR270"/>
<attribute name="VALUE" x="-123.19" y="-22.86" size="1.778" layer="96" rot="MR270"/>
</instance>
<instance part="MQ-135" gate="G$1" x="43.18" y="43.18" smashed="yes">
<attribute name="NAME" x="27.94" y="55.88" size="1.778" layer="95"/>
<attribute name="VALUE" x="27.94" y="53.34" size="1.778" layer="96"/>
</instance>
<instance part="F1" gate="G$1" x="-73.66" y="-2.54" smashed="yes" rot="MR90">
<attribute name="NAME" x="-58.42" y="-17.78" size="1.778" layer="95" rot="MR90"/>
<attribute name="VALUE" x="-60.96" y="-17.78" size="1.778" layer="96" rot="MR90"/>
</instance>
<instance part="GUVA-S12SD" gate="G$1" x="-93.98" y="0" smashed="yes" rot="R90">
<attribute name="NAME" x="-109.22" y="-10.16" size="1.778" layer="95" rot="R90"/>
<attribute name="VALUE" x="-106.68" y="-10.16" size="1.778" layer="95" rot="R90"/>
</instance>
<instance part="R2" gate="G$1" x="20.32" y="30.48" smashed="yes" rot="R90">
<attribute name="NAME" x="17.78" y="27.94" size="1.778" layer="95" rot="R90"/>
<attribute name="VALUE" x="24.13" y="27.94" size="1.778" layer="96" rot="R90"/>
</instance>
<instance part="R3" gate="G$1" x="20.32" y="12.7" smashed="yes" rot="R90">
<attribute name="NAME" x="17.78" y="10.16" size="1.778" layer="95" rot="R90"/>
<attribute name="VALUE" x="24.13" y="10.16" size="1.778" layer="96" rot="R90"/>
</instance>
</instances>
<busses>
</busses>
<nets>
<net name="N$1" class="0">
<segment>
<pinref part="DHT11" gate="G$1" pin="VDD"/>
<wire x1="-129.54" y1="-12.7" x2="-129.54" y2="-17.78" width="0.4064" layer="91"/>
<wire x1="-129.54" y1="-17.78" x2="-149.86" y2="-17.78" width="0.4064" layer="91"/>
<wire x1="-149.86" y1="-17.78" x2="-149.86" y2="15.24" width="0.4064" layer="91"/>
<wire x1="-149.86" y1="15.24" x2="-149.86" y2="17.78" width="0.4064" layer="91"/>
<wire x1="-149.86" y1="17.78" x2="-149.86" y2="27.94" width="0.4064" layer="91"/>
<wire x1="-149.86" y1="27.94" x2="-137.16" y2="27.94" width="0.4064" layer="91"/>
<pinref part="U$1" gate="G$1" pin="3V3"/>
<wire x1="-137.16" y1="27.94" x2="-137.16" y2="30.48" width="0.1524" layer="91"/>
<wire x1="-129.54" y1="-20.32" x2="-129.54" y2="-17.78" width="0.4064" layer="91"/>
<junction x="-129.54" y="-17.78"/>
<pinref part="R1" gate="G$1" pin="1"/>
<pinref part="GUVA-S12SD" gate="G$1" pin="VIN"/>
<wire x1="-99.06" y1="-15.24" x2="-99.06" y2="-22.86" width="0.4064" layer="91"/>
<wire x1="-99.06" y1="-22.86" x2="-114.3" y2="-22.86" width="0.4064" layer="91"/>
<wire x1="-114.3" y1="-22.86" x2="-114.3" y2="15.24" width="0.4064" layer="91"/>
<wire x1="-114.3" y1="15.24" x2="-149.86" y2="15.24" width="0.4064" layer="91"/>
<junction x="-149.86" y="15.24"/>
<pinref part="F1" gate="G$1" pin="VCC"/>
<wire x1="-68.58" y1="-22.86" x2="-68.58" y2="-25.4" width="0.4064" layer="91"/>
<wire x1="-68.58" y1="-25.4" x2="-30.48" y2="-25.4" width="0.4064" layer="91"/>
<wire x1="-30.48" y1="-25.4" x2="-30.48" y2="17.78" width="0.4064" layer="91"/>
<wire x1="-30.48" y1="17.78" x2="-149.86" y2="17.78" width="0.4064" layer="91"/>
<junction x="-149.86" y="17.78"/>
</segment>
</net>
<net name="N$3" class="0">
<segment>
<wire x1="-27.94" y1="20.32" x2="-134.62" y2="20.32" width="0.4064" layer="91" style="shortdash"/>
<pinref part="U$1" gate="G$1" pin="GND"/>
<wire x1="-134.62" y1="20.32" x2="-134.62" y2="30.48" width="0.4064" layer="91" style="shortdash"/>
<pinref part="DHT11" gate="G$1" pin="GND"/>
<wire x1="-121.92" y1="-12.7" x2="-121.92" y2="-33.02" width="0.4064" layer="91" style="shortdash"/>
<wire x1="-121.92" y1="-33.02" x2="-93.98" y2="-33.02" width="0.4064" layer="91" style="shortdash"/>
<wire x1="-93.98" y1="-33.02" x2="-71.12" y2="-33.02" width="0.4064" layer="91" style="shortdash"/>
<wire x1="-71.12" y1="-33.02" x2="-27.94" y2="-33.02" width="0.4064" layer="91" style="shortdash"/>
<wire x1="-27.94" y1="-33.02" x2="-27.94" y2="20.32" width="0.4064" layer="91" style="shortdash"/>
<pinref part="GUVA-S12SD" gate="G$1" pin="GND"/>
<wire x1="-93.98" y1="-15.24" x2="-93.98" y2="-33.02" width="0.4064" layer="91" style="shortdash"/>
<junction x="-93.98" y="-33.02"/>
<pinref part="F1" gate="G$1" pin="GND"/>
<wire x1="-71.12" y1="-22.86" x2="-71.12" y2="-33.02" width="0.4064" layer="91" style="shortdash"/>
<junction x="-71.12" y="-33.02"/>
<pinref part="R3" gate="G$1" pin="1"/>
<wire x1="20.32" y1="7.62" x2="20.32" y2="-33.02" width="0.4064" layer="91" style="shortdash"/>
<wire x1="20.32" y1="-33.02" x2="-27.94" y2="-33.02" width="0.4064" layer="91" style="shortdash"/>
<junction x="-27.94" y="-33.02"/>
</segment>
</net>
<net name="VCC" class="0">
<segment>
<pinref part="P+1" gate="VCC" pin="VCC"/>
<pinref part="U$1" gate="G$1" pin="VIN"/>
<pinref part="MQ-135" gate="G$1" pin="VCC"/>
<wire x1="-137.16" y1="86.36" x2="-137.16" y2="66.04" width="0.4064" layer="91"/>
<wire x1="22.86" y1="45.72" x2="-20.32" y2="45.72" width="0.4064" layer="91"/>
<wire x1="-20.32" y1="45.72" x2="-20.32" y2="86.36" width="0.4064" layer="91"/>
<wire x1="-20.32" y1="86.36" x2="-137.16" y2="86.36" width="0.4064" layer="91"/>
<junction x="-137.16" y="86.36"/>
</segment>
</net>
<net name="N$5" class="0">
<segment>
<pinref part="MQ-135" gate="G$1" pin="GND"/>
<wire x1="22.86" y1="43.18" x2="-22.86" y2="43.18" width="0.4064" layer="91" style="shortdash"/>
<wire x1="-22.86" y1="43.18" x2="-22.86" y2="83.82" width="0.4064" layer="91" style="shortdash"/>
<pinref part="U$1" gate="G$1" pin="GND1"/>
<wire x1="-22.86" y1="83.82" x2="-134.62" y2="83.82" width="0.4064" layer="91" style="shortdash"/>
<wire x1="-134.62" y1="83.82" x2="-134.62" y2="66.04" width="0.4064" layer="91" style="shortdash"/>
</segment>
</net>
<net name="N$4" class="0">
<segment>
<wire x1="-25.4" y1="38.1" x2="-25.4" y2="81.28" width="0.1524" layer="91"/>
<pinref part="U$1" gate="G$1" pin="IO33"/>
<wire x1="-25.4" y1="81.28" x2="-116.84" y2="81.28" width="0.1524" layer="91"/>
<wire x1="-116.84" y1="81.28" x2="-116.84" y2="66.04" width="0.1524" layer="91"/>
<wire x1="-25.4" y1="38.1" x2="15.24" y2="38.1" width="0.1524" layer="91"/>
<wire x1="15.24" y1="38.1" x2="15.24" y2="20.32" width="0.1524" layer="91"/>
<pinref part="R2" gate="G$1" pin="1"/>
<pinref part="R3" gate="G$1" pin="2"/>
<wire x1="20.32" y1="25.4" x2="20.32" y2="20.32" width="0.1524" layer="91"/>
<wire x1="20.32" y1="20.32" x2="20.32" y2="17.78" width="0.1524" layer="91"/>
<wire x1="15.24" y1="20.32" x2="20.32" y2="20.32" width="0.1524" layer="91"/>
<junction x="20.32" y="20.32"/>
</segment>
</net>
<net name="N$6" class="0">
<segment>
<pinref part="U$1" gate="G$1" pin="IO32"/>
<wire x1="-114.3" y1="78.74" x2="-114.3" y2="66.04" width="0.1524" layer="91"/>
<wire x1="-114.3" y1="78.74" x2="-27.94" y2="78.74" width="0.1524" layer="91"/>
<wire x1="-27.94" y1="78.74" x2="-27.94" y2="33.02" width="0.1524" layer="91"/>
<wire x1="-27.94" y1="33.02" x2="-12.7" y2="33.02" width="0.1524" layer="91"/>
<wire x1="-12.7" y1="33.02" x2="-12.7" y2="-48.26" width="0.1524" layer="91"/>
<pinref part="F1" gate="G$1" pin="DO"/>
<wire x1="-12.7" y1="-48.26" x2="-73.66" y2="-48.26" width="0.1524" layer="91"/>
<wire x1="-73.66" y1="-48.26" x2="-73.66" y2="-22.86" width="0.1524" layer="91"/>
</segment>
</net>
<net name="N$7" class="0">
<segment>
<pinref part="DHT11" gate="G$1" pin="DAT"/>
<pinref part="R1" gate="G$1" pin="2"/>
<wire x1="-129.54" y1="-30.48" x2="-129.54" y2="-35.56" width="0.1524" layer="91"/>
<wire x1="-129.54" y1="-35.56" x2="-127" y2="-35.56" width="0.1524" layer="91"/>
<wire x1="-127" y1="-35.56" x2="-127" y2="-12.7" width="0.1524" layer="91"/>
<wire x1="-127" y1="-35.56" x2="-25.4" y2="-35.56" width="0.1524" layer="91"/>
<wire x1="-25.4" y1="-35.56" x2="-25.4" y2="25.4" width="0.1524" layer="91"/>
<junction x="-127" y="-35.56"/>
<pinref part="U$1" gate="G$1" pin="IO23"/>
<wire x1="-101.6" y1="30.48" x2="-101.6" y2="25.4" width="0.1524" layer="91"/>
<wire x1="-25.4" y1="25.4" x2="-101.6" y2="25.4" width="0.1524" layer="91"/>
</segment>
</net>
<net name="N$2" class="0">
<segment>
<pinref part="GUVA-S12SD" gate="G$1" pin="OUT"/>
<wire x1="-91.44" y1="-15.24" x2="-91.44" y2="-45.72" width="0.1524" layer="91"/>
<wire x1="-91.44" y1="-45.72" x2="-15.24" y2="-45.72" width="0.1524" layer="91"/>
<wire x1="-15.24" y1="-45.72" x2="-15.24" y2="30.48" width="0.1524" layer="91"/>
<wire x1="-15.24" y1="30.48" x2="-30.48" y2="30.48" width="0.1524" layer="91"/>
<wire x1="-30.48" y1="30.48" x2="-30.48" y2="76.2" width="0.1524" layer="91"/>
<pinref part="U$1" gate="G$1" pin="IO35"/>
<wire x1="-30.48" y1="76.2" x2="-111.76" y2="76.2" width="0.1524" layer="91"/>
<wire x1="-111.76" y1="76.2" x2="-111.76" y2="66.04" width="0.1524" layer="91"/>
</segment>
</net>
<net name="N$8" class="0">
<segment>
<pinref part="R2" gate="G$1" pin="2"/>
<pinref part="MQ-135" gate="G$1" pin="AO"/>
<wire x1="20.32" y1="35.56" x2="20.32" y2="38.1" width="0.1524" layer="91"/>
<wire x1="20.32" y1="38.1" x2="22.86" y2="38.1" width="0.1524" layer="91"/>
</segment>
</net>
</nets>
</sheet>
</sheets>
</schematic>
</drawing>
<compatibility>
<note version="8.2" severity="warning">
Since Version 8.2, EAGLE supports online libraries. The ids
of those online libraries will not be understood (or retained)
with this version.
</note>
<note version="8.3" severity="warning">
Since Version 8.3, EAGLE supports URNs for individual library
assets (packages, symbols, and devices). The URNs of those assets
will not be understood (or retained) with this version.
</note>
<note version="8.4" severity="warning">
Since Version 8.4, EAGLE supports properties for SPICE simulation. 
Probes in schematics and SPICE mapping objects found in parts and library devices
will not be understood with this version. Update EAGLE to the latest version
for full support of SPICE simulation. 
</note>
</compatibility>
</eagle>
